{
    "appName": "Cactus",
    "hashtag": "#angularjs",
    "tag": "angularjs",
    "connection": {
        "development": {
            "protocol": "HTTP",
            "address": "127.0.0.1",
            "port": "3014"
        },
        "production": {
            "protocol": "HTTP",
            "address": "127.0.0.1",
            "port": "8082"
        }
    },
    "locicero": {
        "facebook": "78909425477",
        "twitter": "andrealocicero1",
        "instagram": "ilbarone1",
        "YouTube": "AndreaLoCicero1"
    },
    "cairoli": {
        "facebook": "156684744388431",
        "twitter": "Antoniocairoli",
        "instagram": "antoniocairoli",
        "YouTube": "cairolitony222"
    },
    "vinci": {
        "facebook": "94598091650",
        "twitter": "roberta_vinci",
        "instagram": "robertavinci1"
    },
    "martinengo": {
        "facebook": "176170599106968",
        "twitter": "giumartinengo",
        "instagram": "giuliamm79",
        "YouTube": "giuliamartinengo"
    },
    "gasperini": {
        "facebook": "134163873409961",
        "twitter": "GasperiniRXRay",
        "instagram": "raimondogasperini",
        "YouTube": "RaimondoGasperini"
    },
    "HTTPS": {
        "development": {
            "cert": "./_cert/",
            "key": "./_cert/"
        },
        "production": {
            "cert": "./_cert/",
            "key": "./_cert/"
        }
    },
    "db": {
        "development": {
            "url": "mongodb://node-web-scraping:ApzHF9CL>Be[pfU@ds035683.mongolab.com:35683/nglove"
        },
        "production": {
            "url": "mongodb://node-web-scraping:ApzHF9CL>Be[pfU@ds035683.mongolab.com:35683/nglove"
        }
    },
    "APIKEYS": {
        "production": {
            "v1": "",
            "exceptionalClient": "",
            "mailToken": ""
        },
        "development": {
            "v1": "",
            "exceptionalClient": "",
            "mailToken": ""
        }
    },
    "KEYS": {
        "production": {
            "hashids": "",
            "secret": "",
            "randomToken": ""
        },
        "development": {
            "hashids": "",
            "secret": "",
            "randomToken": ""
        }
    },
    "PAGINATION": {
        "production": {
            "pageLength": "50"
        },
        "development": {
            "pageLength": "50"
        }
    },
    "FACEBOOK": {
        "production": {
            "client_id": "266712703497888",
            "client_secret": "aef6222882e87c87eb5f526fbee25740",
            "grant_type": "fb_exchange_token",
            "fb_exchange_token": "CAADykuPy9qABAKm0Blgu8CnD9c1T4JzZCT0bJ7jkSmpVkAL9AjCGk5Ygw92oc4ZByZC7YkO6GEOna6QUeAqgxO9U9WpbRY1TagoEPlQIU7ZCIi5ThfR1FwGtSZBQLMGZBSgU3eSCU3zC3rTLuK5rgF6hIabnZC1fU6RZAVTHOua7PqhnRpi0sLyubEarjoTVcqRe0gzYgeVSTdQQWzUZAaDHi3jtUpYDhZCeAZD"
        },
        "development": {
            "client_id": "266712703497888",
            "client_secret": "aef6222882e87c87eb5f526fbee25740",
            "grant_type": "fb_exchange_token",
            "fb_exchange_token": "CAADykuPy9qABAKm0Blgu8CnD9c1T4JzZCT0bJ7jkSmpVkAL9AjCGk5Ygw92oc4ZByZC7YkO6GEOna6QUeAqgxO9U9WpbRY1TagoEPlQIU7ZCIi5ThfR1FwGtSZBQLMGZBSgU3eSCU3zC3rTLuK5rgF6hIabnZC1fU6RZAVTHOua7PqhnRpi0sLyubEarjoTVcqRe0gzYgeVSTdQQWzUZAaDHi3jtUpYDhZCeAZD"
        }
    },
    "TWITTER": {
        "production": {
            "Consumer_Key": "AASfnuCWP9BsuvYkSbdX00evu",
            "Consumer_Secret": "qqa84ILlAUDQJ0ggyZmkrQVvtzS6aMkINOc4OqyLHm6BBnj7E2",
            "Access_Token": "427264288-BypK0aOw5gLvBOzWRZNNW2UN0X2iRNe18XyZM0J6",
            "Access_Token_Secret": "3ulgz9kUZtaOBgVu1AdoKbg73arUR97UMZRTI88YHFZ34"
        },
        "development": {
            "Consumer_Key": "AASfnuCWP9BsuvYkSbdX00evu",
            "Consumer_Secret": "qqa84ILlAUDQJ0ggyZmkrQVvtzS6aMkINOc4OqyLHm6BBnj7E2",
            "Access_Token": "427264288-BypK0aOw5gLvBOzWRZNNW2UN0X2iRNe18XyZM0J6",
            "Access_Token_Secret": "3ulgz9kUZtaOBgVu1AdoKbg73arUR97UMZRTI88YHFZ34"
        }
    },
    "INSTAGRAM": {
        "production": {
            "client_id": "7c5cd44e9b464b208c58159cd4031f5b",
            "client_secret": "24a8d73afb314c719b3f812b613c8ae9"
        },
        "development": {
            "client_id": "7c5cd44e9b464b208c58159cd4031f5b",
            "client_secret": "24a8d73afb314c719b3f812b613c8ae9"
        }
    },
    "GOOGLE": {},
    "GMAIL": {
        "production": {
            "email": "",
            "password": ""
        },
        "development": {
            "email": "",
            "password": ""
        }
    },
    "AWS": {
        "production": {
            "accessKeyId": "",
            "secretAccessKey": "",
            "region": "",
            "endpoint": "undefined"
        },
        "development": {
            "accessKeyId": "",
            "secretAccessKey": "",
            "region": "",
            "endpoint": "undefined"
        }
    },
    "BUCKET": {
        "production": {
            "name": "",
            "path": "",
            "profileFolderName": ""
        },
        "development": {
            "name": "",
            "path": "",
            "profileFolderName": ""
        }
    },
    "PUSH": {
        "production": {
            "ios": {
                "file_name": "",
                "password_p12": ""
            },
            "android": {
                "apiKey": ""
            }
        },
        "development": {
            "ios": {
                "file_name": "",
                "password_p12": ""
            },
            "android": {
                "apiKey": ""
            }
        }
    }
}
